{0,0,0}
{10,0,0}
{20,0,0}
{0,0,-30}
{10,0,-30}
{20,0,-30}
{0,70,0}
{10,70,0}
{20,70,0}
{0,70,-30}
{10,70,-30}
{20,70,-30}
{30,0,0}
{30,10,0}
{30,20,0}
{30,30,0}
{30,40,0}
{30,50,0}
{30,60,0}
{30,70,0}
{30,80,0}
{40,0,0}
{40,10,0}
{40,20,0}
{40,30,0}
{40,40,0}
{40,50,0}
{40,60,0}
{40,70,0}
{40,80,0}
{50,0,0}
{50,10,0}
{50,20,0}
{50,30,0}
{50,40,0}
{50,50,0}
{50,60,0}
{50,70,0}
{50,80,0}
{30,0,-10}
{30,10,-10}
{30,20,-10}
{30,30,-10}
{30,40,-10}
{30,50,-10}
{30,60,-10}
{30,70,-10}
{30,80,-10}
{40,0,-10}
{40,10,-10}
{40,20,-10}
{40,30,-10}
{40,40,-10}
{40,50,-10}
{40,60,-10}
{40,70,-10}
{40,80,-10}
{50,0,-10}
{50,10,-10}
{50,20,-10}
{50,30,-10}
{50,40,-10}
{50,50,-10}
{50,60,-10}
{50,70,-10}
{50,80,-10}
{30,0,-20}
{30,10,-20}
{30,20,-20}
{30,30,-20}
{30,40,-20}
{30,50,-20}
{30,60,-20}
{30,70,-20}
{30,80,-20}
{40,0,-20}
{40,10,-20}
{40,20,-20}
{40,30,-20}
{40,40,-20}
{40,50,-20}
{40,60,-20}
{40,70,-20}
{40,80,-20}
{50,0,-20}
{50,10,-20}
{50,20,-20}
{50,30,-20}
{50,40,-20}
{50,50,-20}
{50,60,-20}
{50,70,-20}
{50,80,-20}
{30,0,-30}
{30,10,-30}
{30,20,-30}
{30,30,-30}
{30,40,-30}
{30,50,-30}
{30,60,-30}
{30,70,-30}
{30,80,-30}
{40,0,-30}
{40,10,-30}
{40,20,-30}
{40,30,-30}
{40,40,-30}
{40,50,-30}
{40,60,-30}
{40,70,-30}
{40,80,-30}
{50,0,-30}
{50,10,-30}
{50,20,-30}
{50,30,-30}
{50,40,-30}
{50,50,-30}
{50,60,-30}
{50,70,-30}
{50,80,-30}
{50,-20,-15}
{50,-20,-25}
{60,-20,-15}
{60,-20,-25}
{55,-30,-15}
{55,-30,-25}
{30,90,-15}
{30,100,-15}
{20,100,-15}